*** Darwin 8x8 ***
Turn = 0.
  01234567
0 f.......
1 ........
2 ........
3 ...hh...
4 ...hh...
5 ........
6 ........
7 .......f

Turn = 1.
  01234567
0 f.......
1 ........
2 ...h....
3 .....h..
4 ..h.....
5 ....h...
6 ........
7 .......f

Turn = 2.
  01234567
0 f.......
1 ...h....
2 ........
3 ......h.
4 .h......
5 ........
6 ....h...
7 .......f

Turn = 3.
  01234567
0 f..h....
1 ........
2 ........
3 .......h
4 h.......
5 ........
6 ........
7 ....h..f

Turn = 4.
  01234567
0 f..h....
1 ........
2 ........
3 .......h
4 h.......
5 ........
6 ........
7 ....h..f

Turn = 5.
  01234567
0 f..h....
1 ........
2 ........
3 .......h
4 h.......
5 ........
6 ........
7 ....h..f

*** Darwin 7x9 ***
Turn = 0.
  012345678
0 t........
1 .........
2 .........
3 ..h......
4 .........
5 ....r....
6 ........t

Turn = 1.
  012345678
0 t........
1 .........
2 .........
3 ...h.....
4 ....r....
5 .........
6 ........t

Turn = 2.
  012345678
0 t........
1 .........
2 .........
3 ....r....
4 ....r....
5 .........
6 ........t

Turn = 3.
  012345678
0 t........
1 .........
2 .........
3 ....rr...
4 .........
5 .........
6 ........t

Turn = 4.
  012345678
0 t........
1 .........
2 ....r....
3 ......r..
4 .........
5 .........
6 ........t

Turn = 5.
  012345678
0 t........
1 ....r....
2 .........
3 .......r.
4 .........
5 .........
6 ........t

*** Darwin 4x4 ***
Turn = 0.
  0123
0 ....
1 ....
2 ..r.
3 ...t

Turn = 1.
  0123
0 ....
1 ....
2 ....
3 ..rt

Turn = 2.
  0123
0 ....
1 ....
2 ....
3 ..tt

Turn = 3.
  0123
0 ....
1 ....
2 ....
3 ..tt

*** Darwin 11x11 ***
Turn = 0.
  01234567890
0 h..........
1 ...........
2 ...........
3 h..........
4 ...........
5 ...........
6 ...........
7 ...........
8 ...........
9 ...........
0 ......h...h

Turn = 1.
  01234567890
0 ...........
1 h..........
2 h..........
3 ...........
4 ...........
5 ...........
6 ...........
7 ...........
8 ...........
9 ...........
0 .......h.h.

Turn = 2.
  01234567890
0 ...........
1 h..........
2 h..........
3 ...........
4 ...........
5 ...........
6 ...........
7 ...........
8 ...........
9 ...........
0 ........hh.

Turn = 3.
  01234567890
0 ...........
1 h..........
2 h..........
3 ...........
4 ...........
5 ...........
6 ...........
7 ...........
8 ...........
9 ...........
0 ........hh.

*** Darwin 3x3 ***
Turn = 0.
  012
0 fff
1 ftf
2 fff

Turn = 1.
  012
0 fft
1 ftt
2 fff

Turn = 2.
  012
0 fft
1 ftt
2 fff

Turn = 3.
  012
0 ftt
1 ftt
2 fff

Turn = 4.
  012
0 ftt
1 ftt
2 ftt

Turn = 5.
  012
0 ttt
1 ttt
2 ftt

Turn = 6.
  012
0 ttt
1 ttt
2 ftt

*** Darwin 12x6 ***
Turn = 0.
  012345
0 .....h
1 f.....
2 ..rt..
3 rf....
4 ......
5 ......
6 .....h
7 ......
8 ......
9 ..r...
0 .f....
1 ......

Turn = 2.
  012345
0 .....h
1 f.....
2 r..t..
3 rf....
4 ......
5 ......
6 ...h..
7 ..r...
8 ......
9 ......
0 .f....
1 ......

*** Darwin 10x5 ***
Turn = 0.
  01234
0 .t...
1 .....
2 .t.t.
3 f.r..
4 ..ft.
5 .r..r
6 .....
7 fft..
8 ..t..
9 ...th

Turn = 2.
  01234
0 .t...
1 .....
2 .ttt.
3 f...r
4 ..tt.
5 .....
6 .r...
7 f.t..
8 .rt..
9 ...th

Turn = 4.
  01234
0 .t...
1 ....r
2 .ttt.
3 f....
4 ..tt.
5 .....
6 .....
7 f.t..
8 .tt..
9 .r.tt

Turn = 6.
  01234
0 .t..r
1 .....
2 .ttt.
3 f....
4 ..tt.
5 .....
6 .....
7 f.t..
8 .tt..
9 .t.tt

*** Darwin 6x5 ***
Turn = 0.
  01234
0 ...t.
1 .....
2 .t...
3 ....h
4 .....
5 ...f.

Turn = 1.
  01234
0 ...t.
1 .....
2 .t...
3 ....h
4 .....
5 ...f.

Turn = 2.
  01234
0 ...t.
1 .....
2 .t...
3 ....h
4 .....
5 ...f.

Turn = 3.
  01234
0 ...t.
1 .....
2 .t...
3 ....h
4 .....
5 ...f.

Turn = 4.
  01234
0 ...t.
1 .....
2 .t...
3 ....h
4 .....
5 ...f.

*** Darwin 6x12 ***
Turn = 0.
  012345678901
0 ....t.t.....
1 .....h......
2 ............
3 ............
4 ...t......t.
5 .....h......

Turn = 2.
  012345678901
0 ....t.t.....
1 ......t.....
2 ............
3 ............
4 ...t......t.
5 ...h........

*** Darwin 5x5 ***
Turn = 0.
  01234
0 h.f.h
1 ..r..
2 ff...
3 f..th
4 ...tr

Turn = 1.
  01234
0 h.f.h
1 ...r.
2 ff...
3 f..tr
4 ...tr

Turn = 2.
  01234
0 h.f.h
1 ....r
2 ff...
3 f..tt
4 ...tt

Turn = 3.
  01234
0 h.f.h
1 ....r
2 ff...
3 f..tt
4 ...tt

Turn = 4.
  01234
0 h.f.h
1 .....
2 ff..r
3 f..tt
4 ...tt

Turn = 5.
  01234
0 h.f.h
1 .....
2 ff..r
3 f..tr
4 ...tr

Turn = 6.
  01234
0 h.f.h
1 .....
2 ff..r
3 f..tr
4 ...tr

Turn = 7.
  01234
0 h.f.h
1 .....
2 ff.r.
3 f..tt
4 ...tt

Turn = 8.
  01234
0 h.f.h
1 .....
2 ffr..
3 f..tt
4 ...tt

*** Darwin 6x5 ***
Turn = 0.
  01234
0 .f.r.
1 ...f.
2 ....t
3 ....h
4 ft...
5 r.f..

Turn = 1.
  01234
0 .fr..
1 ...f.
2 ....t
3 ....t
4 rt...
5 r.f..

Turn = 2.
  01234
0 .rr..
1 ...f.
2 ....t
3 .r..t
4 r....
5 r.f..

Turn = 3.
  01234
0 .rr..
1 ...f.
2 .r..t
3 ....t
4 .r...
5 .rf..

Turn = 4.
  01234
0 r.r..
1 .r.f.
2 ....t
3 ....t
4 ..r..
5 .r.r.

Turn = 5.
  01234
0 rr.r.
1 ...f.
2 ....t
3 ....t
4 ...r.
5 ..r.r

Turn = 6.
  01234
0 rr..r
1 ...f.
2 ....t
3 ....t
4 ....r
5 ...rr

*** Darwin 6x8 ***
Turn = 0.
  01234567
0 .....ft.
1 ........
2 ........
3 ....t...
4 ........
5 .f......

Turn = 1.
  01234567
0 .....tt.
1 ........
2 ........
3 ....t...
4 ........
5 .f......

Turn = 2.
  01234567
0 .....tt.
1 ........
2 ........
3 ....t...
4 ........
5 .f......

Turn = 3.
  01234567
0 .....tt.
1 ........
2 ........
3 ....t...
4 ........
5 .f......

Turn = 4.
  01234567
0 .....tt.
1 ........
2 ........
3 ....t...
4 ........
5 .f......
